{
  "id": 4,
  "title": "XSS test",
  "status": "closed",
  "description": "<h3>This is sanitized - no XSS</h3>\n<body onload=alert(‘XSS on load’)>\n<script>alert('XSS')</script>",
  "created_at": "2019-11-30T16:59:22+00:0",
  "updated_at": "2020-02-21T07:10:46.097Z",
  "comments": [
    {
      "created_at": "2019-11-30T16:59:22+00:0",
      "note": "Neque porro quisquam est qui dolorem ipsum quia dolor sit amet, consectetur, adipisci velit..."
    },
    {
      "created_at": "2019-11-30T16:59:22+00:0",
      "note": "Neque porro quisquam est qui dolorem ipsum quia dolor sit amet, consectetur, adipisci velit..."
    },
    {
      "created_at": "2019-11-30T16:59:22+00:0",
      "note": "Neque porro quisquam est qui dolorem ipsum quia dolor sit amet, consectetur, adipisci velit..."
    },
    {
      "created_at": "2019-11-30T16:59:22+00:0",
      "note": "Neque porro quisquam est qui dolorem ipsum quia dolor sit amet, consectetur, adipisci velit..."
    }
  ]
}
